module github.com/go-micro/demo/flc

go 1.18

require (
	github.com/go-micro/plugins/v4/client/grpc v1.1.0
	github.com/go-micro/plugins/v4/registry/kubernetes v1.1.0
	github.com/go-micro/plugins/v4/server/grpc v1.1.1
	github.com/go-micro/plugins/v4/wrapper/trace/opentelemetry v1.1.1
	github.com/pkg/errors v0.9.1
	go-micro.dev/v4 v4.8.1
	go.opentelemetry.io/otel v1.9.0
	go.opentelemetry.io/otel/exporters/jaeger v1.9.0
	go.opentelemetry.io/otel/sdk v1.9.0
	google.golang.org/grpc v1.49.0
	google.golang.org/protobuf v1.28.1
)

require (
	github.com/Microsoft/go-winio v0.5.2 // indirect
	github.com/ProtonMail/go-crypto v0.0.0-20220824120805-4b6e5c587895 // indirect
	github.com/acomagu/bufpipe v1.0.3 // indirect
	github.com/bitly/go-simplejson v0.5.0 // indirect
	github.com/cloudflare/circl v1.2.0 // indirect
	github.com/cpuguy83/go-md2man/v2 v2.0.2 // indirect
	github.com/emirpasic/gods v1.18.1 // indirect
	github.com/evanphx/json-patch/v5 v5.6.0 // indirect
	github.com/felixge/httpsnoop v1.0.3 // indirect
	github.com/fsnotify/fsnotify v1.5.4 // indirect
	github.com/go-acme/lego/v4 v4.8.0 // indirect
	github.com/go-git/gcfg v1.5.0 // indirect
	github.com/go-git/go-billy/v5 v5.3.1 // indirect
	github.com/go-git/go-git/v5 v5.4.2 // indirect
	github.com/go-logr/logr v1.2.3 // indirect
	github.com/go-logr/stdr v1.2.2 // indirect
	github.com/gobwas/httphead v0.1.0 // indirect
	github.com/gobwas/pool v0.2.1 // indirect
	github.com/gobwas/ws v1.1.0 // indirect
	github.com/golang/protobuf v1.5.2 // indirect
	github.com/google/uuid v1.3.0 // indirect
	github.com/gorilla/handlers v1.5.1 // indirect
	github.com/imdario/mergo v0.3.13 // indirect
	github.com/jbenet/go-context v0.0.0-20150711004518-d14ea06fba99 // indirect
	github.com/kevinburke/ssh_config v1.2.0 // indirect
	github.com/miekg/dns v1.1.50 // indirect
	github.com/mitchellh/go-homedir v1.1.0 // indirect
	github.com/nxadm/tail v1.4.8 // indirect
	github.com/oxtoacart/bpool v0.0.0-20190530202638-03653db5a59c // indirect
	github.com/patrickmn/go-cache v2.1.0+incompatible // indirect
	github.com/russross/blackfriday/v2 v2.1.0 // indirect
	github.com/sergi/go-diff v1.2.0 // indirect
	github.com/urfave/cli/v2 v2.14.1 // indirect
	github.com/xanzy/ssh-agent v0.3.2 // indirect
	github.com/xrash/smetrics v0.0.0-20201216005158-039620a65673 // indirect
	go.opentelemetry.io/otel/trace v1.9.0 // indirect
	golang.org/x/crypto v0.0.0-20220829220503-c86fa9a7ed90 // indirect
	golang.org/x/mod v0.6.0-dev.0.20220419223038-86c51ed26bb4 // indirect
	golang.org/x/net v0.0.0-20220907135653-1e95f45603a7 // indirect
	golang.org/x/sync v0.0.0-20220907140024-f12130a52804 // indirect
	golang.org/x/sys v0.0.0-20220907062415-87db552b00fd // indirect
	golang.org/x/text v0.3.7 // indirect
	golang.org/x/tools v0.1.12 // indirect
	google.golang.org/genproto v0.0.0-20220902135211-223410557253 // indirect
	gopkg.in/tomb.v1 v1.0.0-20141024135613-dd632973f1e7 // indirect
	gopkg.in/warnings.v0 v0.1.2 // indirect
)
